<svg xmlns="http://www.w3.org/2000/svg" width="5.963" height="11.306" viewBox="0 0 5.963 11.306">
    <defs>
        <style>
            .cls-1{fill:#484848}
        </style>
    </defs>
    <path id="Path_2" d="M8.628 4.983l4.694 3.98.984-1.1L8.624 3 3 7.867l.988 1.094z" class="cls-1" data-name="Path 2" transform="rotate(90 5.981 2.982)"/>
</svg>
