<svg xmlns="http://www.w3.org/2000/svg" width="130" height="130" viewBox="0 0 130 130">
    <defs>
        <style>
            .cls-1{fill:#fbfbfb;stroke:#e5e5e5;stroke-width:6px}.cls-2{fill:#fff8d1}.cls-3{fill:#484848;stroke:#484848}.cls-3,.cls-6{stroke-width:.7px}.cls-4{fill:#ecf0f1}.cls-5{fill:none}.cls-6{fill:#004777;stroke:#004777}.cls-7{fill:#4bbfe8}.cls-8{fill:#faca44}.cls-9{fill:#ff7e71}.cls-10{stroke:none}
        </style>
    </defs>
    <g id="Group_8620" data-name="Group 8620" transform="translate(-367 -2247.963)">
        <g id="Ellipse_876" class="cls-1" data-name="Ellipse 876" transform="translate(367 2247.963)">
            <circle cx="65" cy="65" r="65" class="cls-10"/>
            <circle cx="65" cy="65" r="62" class="cls-5"/>
        </g>
        <g id="Group_6735" data-name="Group 6735" transform="translate(291.878 1742.963)">
            <path id="Path_5545" d="M152.817 558.017h12.464a1.985 1.985 0 0 1 1.983 1.983v37.1a1.988 1.988 0 0 1-1.983 1.985H114.86a1.986 1.986 0 0 1-1.974-1.985V560a1.984 1.984 0 0 1 1.974-1.983h12.473" class="cls-2" data-name="Path 5545"/>
        </g>
        <g id="Group_6736" data-name="Group 6736" transform="translate(291.764 1742.963)">
            <path id="Path_5546" d="M165.281 599.74H114.86a2.633 2.633 0 0 1-2.624-2.635V560a2.633 2.633 0 0 1 2.624-2.634h14.473a.65.65 0 0 1 0 1.3H114.86a1.33 1.33 0 0 0-1.324 1.334v37.1a1.331 1.331 0 0 0 1.324 1.335h50.421a1.336 1.336 0 0 0 1.333-1.335V560a1.335 1.335 0 0 0-1.333-1.333h-13.464a.65.65 0 0 1 0-1.3h13.464a2.637 2.637 0 0 1 2.633 2.633v37.1a2.637 2.637 0 0 1-2.633 2.64z" class="cls-3" data-name="Path 5546"/>
        </g>
        <g id="Group_6738" data-name="Group 6738" transform="translate(291.764 1742.963)">
            <path id="Path_5547" d="M134.544 599.09h11.065l1.063 6.716h-13.2z" class="cls-4" data-name="Path 5547"/>
        </g>
        <g id="Group_6739" data-name="Group 6739" transform="translate(291.764 1742.963)">
            <path id="Path_5548" d="M146.691 606.456h-13.222a.649.649 0 0 1-.641-.753l1.074-6.716a.649.649 0 0 1 .641-.547h11.065a.649.649 0 0 1 .642.548l1.039 6.562a.658.658 0 0 1 .052.256.65.65 0 0 1-.65.65zm-12.46-1.3h11.679l-.857-5.415H135.1z" class="cls-3" data-name="Path 5548"/>
        </g>
        <g id="Group_6741" data-name="Group 6741" transform="translate(291.764 1742.963)">
            <path id="Rectangle_2616" d="M0 0h21.746v3.444H0z" class="cls-5" data-name="Rectangle 2616" transform="translate(129.197 605.806)"/>
        </g>
        <g id="Group_6742" data-name="Group 6742" transform="translate(291.764 1742.963)">
            <path id="Path_5549" d="M150.943 609.9H129.2a.65.65 0 0 1-.65-.65v-3.444a.65.65 0 0 1 .65-.651h21.746a.65.65 0 0 1 .65.651v3.444a.65.65 0 0 1-.653.65zm-21.1-1.3h20.446v-2.144h-20.442z" class="cls-3" data-name="Path 5549"/>
        </g>
        <path id="Path_5550" d="M167.264 591.291h-54.378a.651.651 0 0 1 0-1.3h54.378a.651.651 0 0 1 0 1.3z" class="cls-3" data-name="Path 5550" transform="translate(291.764 1741.963)"/>
        <path id="Path_5551" d="M140.071 597.492a2.626 2.626 0 1 1 2.624-2.626 2.627 2.627 0 0 1-2.624 2.626zm0-3.951a1.325 1.325 0 1 0 1.324 1.325 1.326 1.326 0 0 0-1.324-1.325z" class="cls-3" data-name="Path 5551" transform="translate(291.764 1742.522)"/>
        <path id="Path_5552" d="M138.926 544.95a.65.65 0 0 1-.65-.65v-8.145a.65.65 0 1 1 1.3 0v8.145a.65.65 0 0 1-.65.65z" class="cls-6" data-name="Path 5552" transform="translate(291.764 1742.963)"/>
        <path id="Path_5553" d="M119.02 554.472a.65.65 0 0 1-.475-.207l-3.755-4.023a.648.648 0 0 1-.174-.443v-7.414a.65.65 0 1 1 1.3 0v7.158l3.581 3.835a.651.651 0 0 1-.476 1.094z" class="cls-6" data-name="Path 5553" transform="translate(291.764 1742.963)"/>
        <path id="Path_5554" d="M130.411 546.023a.65.65 0 0 1-.65-.65v-3.758a.65.65 0 0 1 1.3 0v3.758a.65.65 0 0 1-.65.65z" class="cls-6" data-name="Path 5554" transform="translate(291.764 1742.963)"/>
        <path id="Path_5555" d="M124.782 548.84a.651.651 0 0 1-.476-.207l-3.746-4.023a.652.652 0 0 1-.174-.443v-7.789a.649.649 0 1 1 1.3 0v7.533l3.572 3.835a.651.651 0 0 1-.475 1.094z" class="cls-6" data-name="Path 5555" transform="translate(291.764 1742.963)"/>
        <path id="Path_5556" d="M161.109 554.472a.651.651 0 0 1-.475-1.094l3.581-3.835v-7.522a.65.65 0 1 1 1.3 0v7.779a.649.649 0 0 1-.175.443l-3.756 4.023a.649.649 0 0 1-.475.206z" class="cls-6" data-name="Path 5556" transform="translate(291.764 1742.963)"/>
        <path id="Path_5557" d="M155.348 548.84a.651.651 0 0 1-.475-1.094l3.582-3.835v-7.533a.65.65 0 0 1 1.3 0v7.789a.649.649 0 0 1-.175.443l-3.757 4.023a.645.645 0 0 1-.475.207z" class="cls-6" data-name="Path 5557" transform="translate(291.764 1742.963)"/>
        <path id="Path_5558" d="M149.719 546.023a.65.65 0 0 1-.65-.65v-3.758a.65.65 0 0 1 1.3 0v3.758a.65.65 0 0 1-.65.65z" class="cls-6" data-name="Path 5558" transform="translate(291.764 1742.963)"/>
        <g id="Group_6753" data-name="Group 6753" transform="translate(291.764 1742.963)">
            <path id="Path_5559" d="M115.275 537.594a2.4 2.4 0 1 1-2.389 2.4 2.4 2.4 0 0 1 2.389-2.4z" class="cls-7" data-name="Path 5559"/>
        </g>
        <g id="Group_6754" data-name="Group 6754" transform="translate(291.764 1742.963)">
            <path id="Path_5560" d="M115.275 543.035a3.046 3.046 0 1 1 3.049-3.041 3.044 3.044 0 0 1-3.049 3.041zm0-4.791a1.745 1.745 0 1 0 1.749 1.75 1.746 1.746 0 0 0-1.749-1.75z" class="cls-6" data-name="Path 5560"/>
        </g>
        <g id="Group_6756" data-name="Group 6756" transform="translate(291.764 1742.963)">
            <path id="Path_5561" d="M121.036 531.588a2.395 2.395 0 1 1-2.4 2.4 2.4 2.4 0 0 1 2.4-2.4z" class="cls-8" data-name="Path 5561"/>
        </g>
        <g id="Group_6757" data-name="Group 6757" transform="translate(291.764 1742.963)">
            <path id="Path_5562" d="M121.036 537.028a3.045 3.045 0 1 1 3.04-3.04 3.048 3.048 0 0 1-3.04 3.04zm0-4.79a1.745 1.745 0 1 0 1.74 1.75 1.752 1.752 0 0 0-1.74-1.75z" class="cls-6" data-name="Path 5562"/>
        </g>
        <g id="Group_6759" data-name="Group 6759" transform="translate(291.764 1742.963)">
            <path id="Path_5563" d="M130.411 536.824a2.4 2.4 0 1 1-2.388 2.39 2.4 2.4 0 0 1 2.388-2.39z" class="cls-7" data-name="Path 5563"/>
        </g>
        <g id="Group_6760" data-name="Group 6760" transform="translate(291.764 1742.963)">
            <path id="Path_5564" d="M130.411 542.266a3.046 3.046 0 1 1 3.05-3.052 3.049 3.049 0 0 1-3.05 3.052zm0-4.791a1.745 1.745 0 1 0 1.751 1.739 1.741 1.741 0 0 0-1.751-1.739z" class="cls-6" data-name="Path 5564"/>
        </g>
        <g id="Group_6762" data-name="Group 6762" transform="translate(291.764 1742.963)">
            <path id="Path_5565" d="M138.754 531.364a2.4 2.4 0 1 1-2.4 2.4 2.4 2.4 0 0 1 2.4-2.4z" class="cls-8" data-name="Path 5565"/>
        </g>
        <g id="Group_6763" data-name="Group 6763" transform="translate(291.764 1742.963)">
            <path id="Path_5566" d="M138.754 536.817a3.052 3.052 0 1 1 3.05-3.052 3.055 3.055 0 0 1-3.05 3.052zm0-4.8a1.751 1.751 0 1 0 1.75 1.75 1.753 1.753 0 0 0-1.75-1.752z" class="cls-6" data-name="Path 5566"/>
        </g>
        <g id="Group_6765" data-name="Group 6765" transform="translate(291.764 1742.963)">
            <path id="Path_5567" d="M149.719 536.824a2.4 2.4 0 1 1-2.4 2.39 2.388 2.388 0 0 1 2.4-2.39z" class="cls-7" data-name="Path 5567"/>
        </g>
        <g id="Group_6766" data-name="Group 6766" transform="translate(291.764 1742.963)">
            <path id="Path_5568" d="M149.719 542.266a3.046 3.046 0 1 1 3.039-3.052 3.054 3.054 0 0 1-3.039 3.052zm0-4.791a1.745 1.745 0 1 0 1.739 1.739 1.746 1.746 0 0 0-1.739-1.739z" class="cls-6" data-name="Path 5568"/>
        </g>
        <g id="Group_6768" data-name="Group 6768" transform="translate(291.764 1742.963)">
            <path id="Path_5569" d="M159.1 531.588a2.395 2.395 0 1 1-2.4 2.4 2.4 2.4 0 0 1 2.4-2.4z" class="cls-8" data-name="Path 5569"/>
        </g>
        <g id="Group_6769" data-name="Group 6769" transform="translate(291.764 1742.963)">
            <path id="Path_5570" d="M159.1 537.028a3.045 3.045 0 1 1 3.038-3.04 3.049 3.049 0 0 1-3.038 3.04zm0-4.79a1.745 1.745 0 1 0 1.738 1.75 1.753 1.753 0 0 0-1.738-1.75z" class="cls-6" data-name="Path 5570"/>
        </g>
        <g id="Group_6771" data-name="Group 6771" transform="translate(291.764 1742.963)">
            <path id="Path_5571" d="M164.865 537.219a2.4 2.4 0 1 1-2.389 2.4 2.4 2.4 0 0 1 2.389-2.4z" class="cls-7" data-name="Path 5571"/>
        </g>
        <g id="Group_6772" data-name="Group 6772" transform="translate(291.764 1742.963)">
            <path id="Path_5572" d="M164.865 542.671a3.052 3.052 0 1 1 3.049-3.05 3.048 3.048 0 0 1-3.049 3.05zm0-4.8a1.75 1.75 0 1 0 1.749 1.752 1.748 1.748 0 0 0-1.749-1.754z" class="cls-6" data-name="Path 5572"/>
        </g>
        <path id="Path_6089" d="M17.569 33.012H15.43a1.947 1.947 0 0 1-1.65-.914c-.155-.245-1.1-1.832-1.584-2.772l-1.709-.7c-1.043.33-2.92.8-3.082.838a1.954 1.954 0 0 1-1.818-.521l-1.515-1.518a1.95 1.95 0 0 1-.521-1.818c.066-.284.515-2.076.838-3.082l-.7-1.7c-.99-.5-2.64-1.5-2.772-1.584A1.947 1.947 0 0 1 0 17.589v-2.145a1.947 1.947 0 0 1 .914-1.65c.245-.155 1.832-1.1 2.772-1.584l.7-1.7c-.33-1.043-.8-2.92-.838-3.082a1.954 1.954 0 0 1 .521-1.818l1.518-1.518A1.95 1.95 0 0 1 7.4 3.571c.284.066 2.076.515 3.082.838l1.7-.7c.5-.99 1.5-2.64 1.584-2.772A1.947 1.947 0 0 1 15.424.02h2.138a1.947 1.947 0 0 1 1.65.914c.155.245 1.1 1.832 1.584 2.772l1.7.7c1.043-.33 2.92-.8 3.082-.838a1.954 1.954 0 0 1 1.818.521l1.515 1.515a1.95 1.95 0 0 1 .521 1.818c-.066.284-.515 2.076-.838 3.082l.7 1.7c.99.5 2.64 1.5 2.772 1.584a1.947 1.947 0 0 1 .914 1.65v2.138a1.947 1.947 0 0 1-.914 1.65c-.245.155-1.832 1.1-2.772 1.584l-.69 1.709c.33 1.043.8 2.92.838 3.082a1.954 1.954 0 0 1-.521 1.818l-1.509 1.521a1.954 1.954 0 0 1-1.818.521c-.284-.066-2.076-.515-3.082-.838l-1.7.7c-.5.99-1.5 2.64-1.584 2.772a1.947 1.947 0 0 1-1.657.914z" class="cls-9" data-name="Path 6089" transform="translate(415.764 2294.943)"/>
        <path id="Path_6090" d="M17.569 33.012H15.43a1.947 1.947 0 0 1-1.65-.914c-.155-.245-1.1-1.832-1.584-2.772l-1.709-.7c-1.043.33-2.92.8-3.082.838a1.954 1.954 0 0 1-1.818-.521l-1.515-1.518a1.95 1.95 0 0 1-.521-1.818c.066-.284.515-2.076.838-3.082l-.7-1.7c-.99-.5-2.64-1.5-2.772-1.584A1.947 1.947 0 0 1 0 17.589v-2.145a1.947 1.947 0 0 1 .914-1.65c.245-.155 1.832-1.1 2.772-1.584l.7-1.7c-.33-1.043-.8-2.92-.838-3.082a1.954 1.954 0 0 1 .521-1.818l1.518-1.518A1.95 1.95 0 0 1 7.4 3.571c.284.066 2.076.515 3.082.838l1.7-.7c.5-.99 1.5-2.64 1.584-2.772A1.947 1.947 0 0 1 15.424.02h2.138a1.947 1.947 0 0 1 1.65.914c.155.245 1.1 1.832 1.584 2.772l1.7.7c1.043-.33 2.92-.8 3.082-.838a1.954 1.954 0 0 1 1.818.521l1.515 1.515a1.95 1.95 0 0 1 .521 1.818c-.066.284-.515 2.076-.838 3.082l.7 1.7c.99.5 2.64 1.5 2.772 1.584a1.947 1.947 0 0 1 .914 1.65v2.138a1.947 1.947 0 0 1-.914 1.65c-.245.155-1.832 1.1-2.772 1.584l-.69 1.709c.33 1.043.8 2.92.838 3.082a1.954 1.954 0 0 1-.521 1.818l-1.509 1.521a1.954 1.954 0 0 1-1.818.521c-.284-.066-2.076-.515-3.082-.838l-1.7.7c-.5.99-1.5 2.64-1.584 2.772a1.947 1.947 0 0 1-1.657.914zm-7.032-6.349l2.993 1.244.148.33c.3.66 1.4 2.515 1.65 2.894a.125.125 0 0 0 .109.059h2.138a.125.125 0 0 0 .109-.059c.195-.31 1.32-2.191 1.65-2.894l.148-.33 3-1.244.33.122c.683.251 2.765.785 3.2.891a.112.112 0 0 0 .115-.033l1.515-1.515a.116.116 0 0 0 .033-.115c-.082-.353-.617-2.482-.891-3.2l-.122-.33 1.237-3 .33-.148c.66-.3 2.515-1.4 2.894-1.65a.125.125 0 0 0 .059-.109v-2.139a.125.125 0 0 0-.059-.109c-.31-.195-2.191-1.32-2.894-1.65l-.33-.148-1.244-3 .122-.33c.251-.683.785-2.765.891-3.2a.125.125 0 0 0-.033-.115l-1.507-1.522a.115.115 0 0 0-.115-.033c-.353.082-2.475.617-3.2.891l-.33.122-3.014-1.238-.148-.33c-.3-.66-1.4-2.515-1.65-2.894a.125.125 0 0 0-.109-.059h-2.125a.125.125 0 0 0-.109.059c-.195.31-1.32 2.191-1.65 2.894l-.148.33-3 1.244-.33-.122c-.683-.251-2.765-.785-3.2-.891a.112.112 0 0 0-.115.033L5.362 6.884A.115.115 0 0 0 5.329 7c.082.353.617 2.482.891 3.2l.122.33L5.1 13.543l-.33.148c-.66.3-2.515 1.4-2.894 1.65a.125.125 0 0 0-.059.109v2.138a.125.125 0 0 0 .059.109c.31.195 2.191 1.32 2.894 1.65l.33.148 1.244 3-.122.33c-.251.683-.785 2.765-.891 3.2a.125.125 0 0 0 .033.115l1.515 1.515A.115.115 0 0 0 7 27.7c.353-.082 2.475-.617 3.2-.891zm5.963-2.442a7.709 7.709 0 1 1 7.709-7.709 7.709 7.709 0 0 1-7.709 7.709zm0-13.592a5.884 5.884 0 1 0 5.884 5.884 5.884 5.884 0 0 0-5.884-5.884z" class="cls-3" data-name="Path 6090" transform="translate(415.764 2294.943)"/>
        <path id="Path_6092" d="M16.5 24.221a7.709 7.709 0 1 1 7.709-7.709 7.709 7.709 0 0 1-7.709 7.709z" class="cls-2" data-name="Path 6092" transform="translate(415.764 2294.943)"/>
        <path id="Path_6091" d="M16.5 24.221a7.709 7.709 0 1 1 7.709-7.709 7.709 7.709 0 0 1-7.709 7.709zm0-13.592a5.884 5.884 0 1 0 5.884 5.884 5.884 5.884 0 0 0-5.884-5.884z" class="cls-3" data-name="Path 6091" transform="translate(415.764 2294.943)"/>
    </g>
</svg>
